…
cleanData2(d2)
```

```
## # A tibble: 588 x 4
##    ID    angles     A     B
##    <chr>  <dbl> <dbl> <dbl>
##  1 10       60.  31.5 1.00 
##  2 10       65.  31.3 1.00 
##  3 10       70.  31.1 0.202
##  4 10       75.  31.0 0.448
##  5 10       80.  30.8 0.671
##  6 10       85.  30.5 0.461
##  7 10       90.  30.3 0.245
##  8 10       95.  30.0 0.159
##  9 10      100.  29.7 0.170
## 10 10      105.  29.2 0.421
## # ... with 578 more rows
```
…
cleanData3(d2)
```

```
## # A tibble: 588 x 4
##    ID    angles     A     B
##    <chr>  <dbl> <dbl> <dbl>
##  1 10       60.  31.5 1.00 
##  2 10       65.  31.3 1.00 
##  3 10       70.  31.1 0.202
##  4 10       75.  31.0 0.448
##  5 10       80.  30.8 0.671
##  6 10       85.  30.5 0.461
##  7 10       90.  30.3 0.245
##  8 10       95.  30.0 0.159
##  9 10      100.  29.7 0.170
## 10 10      105.  29.2 0.421
## # ... with 578 more rows
```
…
