…
Notice that some ID’s are sampled multiple times, while others, not at all, which is the nature
of bootstrap sampling.

If we want to assess the bootstrap distribution of the average Measure for each Angle, we can
just unnest this tibble, and then assess the averages by Angle. This would give one bootstrap sample.

as.tibble(bs$splits[[1]]) %>% unnest() %>% 
  group_by(Angle) %>% summarize(AvgMeasure = mean(Measure))

## # A tibble: 37 x 2
##    Angle AvgMeasure
##    <int>      <dbl>
##  1   -90      0.596
##  2   -85      0.557
##  3   -80      0.539
##  4   -75      0.532
##  5   -70      0.595
##  6   -65      0.530
##  7   -60      0.495
##  8   -55      0.480
##  9   -50      0.439
## 10   -45      0.383
## # ... with 27 more rows
…
